<svg width="173" height="40" viewBox="0 0 173 40" fill="none" xmlns="http://www.w3.org/2000/svg">
<g opacity="0.16" filter="url(#filter0_f_101_128)">
<ellipse cx="86.5" cy="20" rx="80.5" ry="14" fill="url(#paint0_radial_101_128)"/>
</g>
<defs>
<filter id="filter0_f_101_128" x="0" y="0" width="173" height="40" filterUnits="userSpaceOnUse" color-interpolation-filters="sRGB">
<feFlood flood-opacity="0" result="BackgroundImageFix"/>
<feBlend mode="normal" in="SourceGraphic" in2="BackgroundImageFix" result="shape"/>
<feGaussianBlur stdDeviation="3" result="effect1_foregroundBlur_101_128"/>
</filter>
<radialGradient id="paint0_radial_101_128" cx="0" cy="0" r="1" gradientUnits="userSpaceOnUse" gradientTransform="translate(86.5 20) rotate(90) scale(23.5 135.125)">
<stop/>
<stop offset="1" stop-color="#375A64" stop-opacity="0"/>
</radialGradient>
</defs>
</svg>
